(module LOGO (layer F.Cu)
  (at 0 0)
 (fp_text reference "G***" (at 0 0) (layer F.SilkS) hide
  (effects (font (thickness 0.3)))
  )
  (fp_text value "LOGO" (at 0.75 0) (layer F.SilkS) hide
  (effects (font (thickness 0.3)))
  )
  (fp_poly (pts (xy 0.399414 3.462629) (xy 0.625024 3.695204) (xy 1.025550 4.315276) (xy 0.929344 4.748316) (xy 0.646554 4.917710) (xy 0.104562 5.051408) (xy -0.431727 4.917396) (xy -0.467894 4.902927)
     (xy -0.777943 4.562970) (xy -0.652476 4.050384) (xy -0.310766 3.648748) (xy 0.091761 3.355096) (xy 0.399414 3.462629) )(layer F.Cu) (width  0.010000)
  )
  (fp_poly (pts (xy -1.592273 -0.327776) (xy -0.798591 0.233221) (xy -0.390625 1.058425) (xy -0.426274 2.058007) (xy -0.658329 2.654169) (xy -0.986380 3.219067) (xy -1.294207 3.406047) (xy -1.751416 3.243323)
     (xy -2.272631 2.922702) (xy -3.105097 2.506985) (xy -3.943684 2.244070) (xy -4.612568 1.937796) (xy -4.812839 1.414315) (xy -2.318819 1.414315) (xy -2.123808 1.787001) (xy -1.871579 1.871579)
     (xy -1.528668 1.676818) (xy -1.456128 1.580914) (xy -1.424894 1.173157) (xy -1.707776 0.899589) (xy -2.095782 0.932622) (xy -2.169124 0.992703) (xy -2.318819 1.414315) (xy -4.812839 1.414315)
     (xy -4.823912 1.385372) (xy -4.571563 0.627343) (xy -4.258489 0.169741) (xy -3.662653 -0.357703) (xy -2.873949 -0.531891) (xy -2.713769 -0.534737) (xy -1.592273 -0.327776) )(layer F.Cu) (width  0.010000)
  )
  (fp_poly (pts (xy 3.824010 -0.406051) (xy 4.433502 0.057417) (xy 4.525858 0.169741) (xy 4.942850 0.891568) (xy 5.076821 1.549833) (xy 4.923286 2.008074) (xy 4.590577 2.138947) (xy 4.084934 2.255633)
     (xy 3.317678 2.554830) (xy 2.785840 2.806249) (xy 2.053745 3.172819) (xy 1.550432 3.415674) (xy 1.410551 3.474670) (xy 1.261874 3.265180) (xy 0.975608 2.749888) (xy 0.925698 2.654169)
     (xy 0.619247 1.596631) (xy 0.652322 1.414315) (xy 1.691707 1.414315) (xy 1.886718 1.787001) (xy 2.138948 1.871579) (xy 2.481858 1.676818) (xy 2.554398 1.580914) (xy 2.585632 1.173157)
     (xy 2.302750 0.899589) (xy 1.914744 0.932622) (xy 1.841402 0.992703) (xy 1.691707 1.414315) (xy 0.652322 1.414315) (xy 0.788501 0.663685) (xy 1.375560 -0.054840) (xy 2.322524 -0.469115)
     (xy 2.981138 -0.534737) (xy 3.824010 -0.406051) )(layer F.Cu) (width  0.010000)
  )
  (fp_poly (pts (xy 3.327021 -4.774927) (xy 3.545353 -4.525752) (xy 3.919081 -3.736828) (xy 3.924363 -3.233692) (xy 3.914333 -2.458099) (xy 4.025468 -1.965966) (xy 4.130697 -1.608915) (xy 4.009743 -1.454481)
     (xy 3.549154 -1.453453) (xy 2.985889 -1.515055) (xy 2.126894 -1.565780) (xy 1.531346 -1.420340) (xy 0.944488 -1.014494) (xy 0.920248 -0.994171) (xy 0.122722 -0.323098) (xy -0.656045 -0.992964)
     (xy -1.252416 -1.414666) (xy -1.871404 -1.572305) (xy -2.700312 -1.541233) (xy -3.454282 -1.485653) (xy -3.791980 -1.542869) (xy -3.827878 -1.760475) (xy -3.755192 -1.979817) (xy -3.639176 -2.658318)
     (xy -3.665283 -3.348125) (xy -3.607988 -4.154643) (xy -3.268506 -4.624571) (xy -2.638261 -4.945883) (xy -2.070302 -4.745195) (xy -1.646157 -4.129502) (xy -1.407219 -3.746555) (xy -1.035397 -3.550514)
     (xy -0.369688 -3.481443) (xy 0.109935 -3.475790) (xy 0.982506 -3.507380) (xy 1.464190 -3.633200) (xy 1.696710 -3.899823) (xy 1.737985 -4.010810) (xy 2.102981 -4.562384) (xy 2.473351 -4.848508)
     (xy 2.938916 -4.996659) (xy 3.327021 -4.774927) )(layer F.Cu) (width  0.010000)
  )

(fp_poly (pts (xy 0.399414 3.462629) (xy 0.625024 3.695204) (xy 1.025550 4.315276) (xy 0.929344 4.748316) (xy 0.646554 4.917710) (xy 0.104562 5.051408) (xy -0.431727 4.917396) (xy -0.467894 4.902927)
     (xy -0.777943 4.562970) (xy -0.652476 4.050384) (xy -0.310766 3.648748) (xy 0.091761 3.355096) (xy 0.399414 3.462629) )(layer F.Mask) (width  0.010000)
  )
  (fp_poly (pts (xy -1.592273 -0.327776) (xy -0.798591 0.233221) (xy -0.390625 1.058425) (xy -0.426274 2.058007) (xy -0.658329 2.654169) (xy -0.986380 3.219067) (xy -1.294207 3.406047) (xy -1.751416 3.243323)
     (xy -2.272631 2.922702) (xy -3.105097 2.506985) (xy -3.943684 2.244070) (xy -4.612568 1.937796) (xy -4.812839 1.414315) (xy -2.318819 1.414315) (xy -2.123808 1.787001) (xy -1.871579 1.871579)
     (xy -1.528668 1.676818) (xy -1.456128 1.580914) (xy -1.424894 1.173157) (xy -1.707776 0.899589) (xy -2.095782 0.932622) (xy -2.169124 0.992703) (xy -2.318819 1.414315) (xy -4.812839 1.414315)
     (xy -4.823912 1.385372) (xy -4.571563 0.627343) (xy -4.258489 0.169741) (xy -3.662653 -0.357703) (xy -2.873949 -0.531891) (xy -2.713769 -0.534737) (xy -1.592273 -0.327776) )(layer F.Mask) (width  0.010000)
  )
  (fp_poly (pts (xy 3.824010 -0.406051) (xy 4.433502 0.057417) (xy 4.525858 0.169741) (xy 4.942850 0.891568) (xy 5.076821 1.549833) (xy 4.923286 2.008074) (xy 4.590577 2.138947) (xy 4.084934 2.255633)
     (xy 3.317678 2.554830) (xy 2.785840 2.806249) (xy 2.053745 3.172819) (xy 1.550432 3.415674) (xy 1.410551 3.474670) (xy 1.261874 3.265180) (xy 0.975608 2.749888) (xy 0.925698 2.654169)
     (xy 0.619247 1.596631) (xy 0.652322 1.414315) (xy 1.691707 1.414315) (xy 1.886718 1.787001) (xy 2.138948 1.871579) (xy 2.481858 1.676818) (xy 2.554398 1.580914) (xy 2.585632 1.173157)
     (xy 2.302750 0.899589) (xy 1.914744 0.932622) (xy 1.841402 0.992703) (xy 1.691707 1.414315) (xy 0.652322 1.414315) (xy 0.788501 0.663685) (xy 1.375560 -0.054840) (xy 2.322524 -0.469115)
     (xy 2.981138 -0.534737) (xy 3.824010 -0.406051) )(layer F.Mask) (width  0.010000)
  )
  (fp_poly (pts (xy 3.327021 -4.774927) (xy 3.545353 -4.525752) (xy 3.919081 -3.736828) (xy 3.924363 -3.233692) (xy 3.914333 -2.458099) (xy 4.025468 -1.965966) (xy 4.130697 -1.608915) (xy 4.009743 -1.454481)
     (xy 3.549154 -1.453453) (xy 2.985889 -1.515055) (xy 2.126894 -1.565780) (xy 1.531346 -1.420340) (xy 0.944488 -1.014494) (xy 0.920248 -0.994171) (xy 0.122722 -0.323098) (xy -0.656045 -0.992964)
     (xy -1.252416 -1.414666) (xy -1.871404 -1.572305) (xy -2.700312 -1.541233) (xy -3.454282 -1.485653) (xy -3.791980 -1.542869) (xy -3.827878 -1.760475) (xy -3.755192 -1.979817) (xy -3.639176 -2.658318)
     (xy -3.665283 -3.348125) (xy -3.607988 -4.154643) (xy -3.268506 -4.624571) (xy -2.638261 -4.945883) (xy -2.070302 -4.745195) (xy -1.646157 -4.129502) (xy -1.407219 -3.746555) (xy -1.035397 -3.550514)
     (xy -0.369688 -3.481443) (xy 0.109935 -3.475790) (xy 0.982506 -3.507380) (xy 1.464190 -3.633200) (xy 1.696710 -3.899823) (xy 1.737985 -4.010810) (xy 2.102981 -4.562384) (xy 2.473351 -4.848508)
     (xy 2.938916 -4.996659) (xy 3.327021 -4.774927) )(layer F.Mask) (width  0.010000)
  )
)
