EESchema Schematic File Version 2
LIBS:power
LIBS:printer_PCB-cache
EELAYER 25 0
EELAYER END
$Descr A4 11693 8268
encoding utf-8
Sheet 1 1
Title ""
Date ""
Rev ""
Comp ""
Comment1 ""
Comment2 ""
Comment3 ""
Comment4 ""
$EndDescr
$Comp
L Driver_Motor:Pololu_Breakout_DRV8825 A?
U 1 1 5BAAA32D
P 3350 1750
F 0 "A?" H 3150 950 50  0000 C CNN
F 1 "Pololu_Breakout_DRV8825" H 3350 2550 50  0000 C CNN
F 2 "Module:Pololu_Breakout-16_15.2x20.3mm" H 3550 950 50  0001 L CNN
F 3 "https://www.pololu.com/product/2982" H 3450 1450 50  0001 C CNN
	1    3350 1750
	1    0    0    -1  
$EndComp
$Comp
L Driver_Motor:Pololu_Breakout_DRV8825 A?
U 1 1 5BAAA3E0
P 5000 1750
F 0 "A?" H 4800 950 50  0000 C CNN
F 1 "Pololu_Breakout_DRV8825" H 5000 2550 50  0000 C CNN
F 2 "Module:Pololu_Breakout-16_15.2x20.3mm" H 5200 950 50  0001 L CNN
F 3 "https://www.pololu.com/product/2982" H 5100 1450 50  0001 C CNN
	1    5000 1750
	1    0    0    -1  
$EndComp
$Comp
L Driver_Motor:Pololu_Breakout_DRV8825 A?
U 1 1 5BAAA451
P 6650 1750
F 0 "A?" H 6450 950 50  0000 C CNN
F 1 "Pololu_Breakout_DRV8825" H 6650 2550 50  0000 C CNN
F 2 "Module:Pololu_Breakout-16_15.2x20.3mm" H 6850 950 50  0001 L CNN
F 3 "https://www.pololu.com/product/2982" H 6750 1450 50  0001 C CNN
	1    6650 1750
	1    0    0    -1  
$EndComp
$Comp
L Driver_Motor:Pololu_Breakout_DRV8825 A?
U 1 1 5BAAA48D
P 8300 1750
F 0 "A?" H 8100 950 50  0000 C CNN
F 1 "Pololu_Breakout_DRV8825" H 8300 2550 50  0000 C CNN
F 2 "Module:Pololu_Breakout-16_15.2x20.3mm" H 8500 950 50  0001 L CNN
F 3 "https://www.pololu.com/product/2982" H 8400 1450 50  0001 C CNN
	1    8300 1750
	1    0    0    -1  
$EndComp
$Comp
L Driver_Motor:Pololu_Breakout_DRV8825 A?
U 1 1 5BAAA4FA
P 10000 1750
F 0 "A?" H 9800 950 50  0000 C CNN
F 1 "Pololu_Breakout_DRV8825" H 10000 2600 50  0000 C CNN
F 2 "Module:Pololu_Breakout-16_15.2x20.3mm" H 10200 950 50  0001 L CNN
F 3 "https://www.pololu.com/product/2982" H 10100 1450 50  0001 C CNN
	1    10000 1750
	1    0    0    -1  
$EndComp
$Comp
L Connector:Conn_01x03_Female J?
U 1 1 5BAAAEFD
P 1000 1350
F 0 "J?" H 894 1025 50  0000 C CNN
F 1 "Conn_01x03_Female" H 894 1116 50  0000 C CNN
F 2 "" H 1000 1350 50  0001 C CNN
F 3 "~" H 1000 1350 50  0001 C CNN
	1    1000 1350
	-1   0    0    1   
$EndComp
Wire Wire Line
	1200 1250 1600 1250
Wire Wire Line
	1200 1350 1600 1350
Wire Wire Line
	1200 1450 1600 1450
Text Label 1600 1350 2    50   ~ 0
GND
Text Label 1600 1250 2    50   ~ 0
12V
Text Label 1600 1450 2    50   ~ 0
5V
Wire Wire Line
	3350 1150 3350 1100
Wire Wire Line
	3200 1100 3350 1100
Wire Wire Line
	3350 1100 3850 1100
Text Label 3200 1100 0    50   ~ 0
12V
Text Label 4850 1100 0    50   ~ 0
12V
Wire Wire Line
	4850 1100 5000 1100
Wire Wire Line
	5000 1100 5500 1100
Wire Wire Line
	5000 1100 5000 1150
Text Label 6500 1100 0    50   ~ 0
12V
Wire Wire Line
	6500 1100 6650 1100
Wire Wire Line
	6650 1100 7150 1100
Wire Wire Line
	6650 1100 6650 1150
Text Label 8150 1100 0    50   ~ 0
12V
Wire Wire Line
	8150 1100 8300 1100
Wire Wire Line
	8300 1100 8800 1100
Wire Wire Line
	8300 1100 8300 1150
$Comp
L Connector:Conn_01x04_Female J?
U 1 1 5BAABCDD
P 4150 1800
F 0 "J?" H 4177 1776 50  0000 L CNN
F 1 "Conn_01x04_Female" H 3750 1450 50  0000 L CNN
F 2 "" H 4150 1800 50  0001 C CNN
F 3 "~" H 4150 1800 50  0001 C CNN
	1    4150 1800
	1    0    0    -1  
$EndComp
Wire Wire Line
	3750 1650 3950 1650
Wire Wire Line
	3950 1650 3950 1700
Wire Wire Line
	3750 1750 3950 1750
Wire Wire Line
	3950 1750 3950 1800
Wire Wire Line
	3750 1950 3950 1950
Wire Wire Line
	3950 1950 3950 1900
Wire Wire Line
	3950 2000 3950 2050
Wire Wire Line
	3950 2050 3750 2050
$Comp
L Connector:Conn_01x04_Female J?
U 1 1 5BAAC52D
P 5800 1800
F 0 "J?" H 5827 1776 50  0000 L CNN
F 1 "Conn_01x04_Female" H 5400 1450 50  0000 L CNN
F 2 "" H 5800 1800 50  0001 C CNN
F 3 "~" H 5800 1800 50  0001 C CNN
	1    5800 1800
	1    0    0    -1  
$EndComp
Wire Wire Line
	5400 1650 5600 1650
Wire Wire Line
	5600 1650 5600 1700
Wire Wire Line
	5400 1750 5600 1750
Wire Wire Line
	5600 1750 5600 1800
Wire Wire Line
	5400 1950 5600 1950
Wire Wire Line
	5600 1950 5600 1900
Wire Wire Line
	5600 2000 5600 2050
Wire Wire Line
	5600 2050 5400 2050
$Comp
L Connector:Conn_01x04_Female J?
U 1 1 5BAAC80F
P 7450 1800
F 0 "J?" H 7477 1776 50  0000 L CNN
F 1 "Conn_01x04_Female" H 7050 1450 50  0000 L CNN
F 2 "" H 7450 1800 50  0001 C CNN
F 3 "~" H 7450 1800 50  0001 C CNN
	1    7450 1800
	1    0    0    -1  
$EndComp
Wire Wire Line
	7050 1650 7250 1650
Wire Wire Line
	7250 1650 7250 1700
Wire Wire Line
	7050 1750 7250 1750
Wire Wire Line
	7250 1750 7250 1800
Wire Wire Line
	7050 1950 7250 1950
Wire Wire Line
	7250 1950 7250 1900
Wire Wire Line
	7250 2000 7250 2050
Wire Wire Line
	7250 2050 7050 2050
$Comp
L Connector:Conn_01x04_Female J?
U 1 1 5BAACD5F
P 9100 1800
F 0 "J?" H 9127 1776 50  0000 L CNN
F 1 "Conn_01x04_Female" H 8700 1450 50  0000 L CNN
F 2 "" H 9100 1800 50  0001 C CNN
F 3 "~" H 9100 1800 50  0001 C CNN
	1    9100 1800
	1    0    0    -1  
$EndComp
Wire Wire Line
	8700 1650 8900 1650
Wire Wire Line
	8900 1650 8900 1700
Wire Wire Line
	8700 1750 8900 1750
Wire Wire Line
	8900 1750 8900 1800
Wire Wire Line
	8700 1950 8900 1950
Wire Wire Line
	8900 1950 8900 1900
Wire Wire Line
	8900 2000 8900 2050
Wire Wire Line
	8900 2050 8700 2050
$Comp
L Connector:Conn_01x04_Female J?
U 1 1 5BAAE3BB
P 10800 1800
F 0 "J?" H 10827 1776 50  0000 L CNN
F 1 "Conn_01x04_Female" H 10400 1450 50  0000 L CNN
F 2 "" H 10800 1800 50  0001 C CNN
F 3 "~" H 10800 1800 50  0001 C CNN
	1    10800 1800
	1    0    0    -1  
$EndComp
Wire Wire Line
	10400 1650 10600 1650
Wire Wire Line
	10600 1650 10600 1700
Wire Wire Line
	10400 1750 10600 1750
Wire Wire Line
	10600 1750 10600 1800
Wire Wire Line
	10400 1950 10600 1950
Wire Wire Line
	10600 1950 10600 1900
Wire Wire Line
	10600 2000 10600 2050
Wire Wire Line
	10600 2050 10400 2050
Text Label 9850 1100 0    50   ~ 0
12V
Wire Wire Line
	9850 1100 10000 1100
Wire Wire Line
	10000 1100 10500 1100
Wire Wire Line
	10000 1100 10000 1150
Wire Wire Line
	3350 2550 3350 2650
Wire Wire Line
	3350 2650 3400 2650
Wire Wire Line
	3400 2650 3450 2650
Wire Wire Line
	3450 2650 3450 2550
Wire Wire Line
	3400 2650 3400 2700
Connection ~ 3400 2650
Text Label 3400 2700 3    50   ~ 0
GND
Wire Wire Line
	5000 2550 5000 2650
Wire Wire Line
	5000 2650 5050 2650
Wire Wire Line
	5050 2650 5100 2650
Wire Wire Line
	5100 2650 5100 2550
Wire Wire Line
	5050 2650 5050 2700
Connection ~ 5050 2650
Text Label 5050 2700 3    50   ~ 0
GND
Wire Wire Line
	6650 2550 6650 2650
Wire Wire Line
	6650 2650 6700 2650
Wire Wire Line
	6700 2650 6750 2650
Wire Wire Line
	6750 2650 6750 2550
Wire Wire Line
	6700 2650 6700 2700
Connection ~ 6700 2650
Text Label 6700 2700 3    50   ~ 0
GND
Wire Wire Line
	8300 2550 8300 2650
Wire Wire Line
	8300 2650 8350 2650
Wire Wire Line
	8350 2650 8400 2650
Wire Wire Line
	8400 2650 8400 2550
Wire Wire Line
	8350 2650 8350 2700
Connection ~ 8350 2650
Text Label 8350 2700 3    50   ~ 0
GND
Wire Wire Line
	10000 2550 10000 2650
Wire Wire Line
	10000 2650 10050 2650
Wire Wire Line
	10050 2650 10100 2650
Wire Wire Line
	10100 2650 10100 2550
Wire Wire Line
	10050 2650 10050 2700
Connection ~ 10050 2650
Text Label 10050 2700 3    50   ~ 0
GND
Connection ~ 6650 1100
$Comp
L Device:C C?
U 1 1 5BAB8B6D
P 7150 1250
F 0 "C?" H 7265 1296 50  0000 L CNN
F 1 "100uF" H 7265 1205 50  0000 L CNN
F 2 "" H 7188 1100 50  0001 C CNN
F 3 "~" H 7150 1250 50  0001 C CNN
	1    7150 1250
	1    0    0    -1  
$EndComp
Wire Wire Line
	7150 1400 7150 1450
Text Label 7150 1450 0    50   ~ 0
GND
$Comp
L Device:C C?
U 1 1 5BABAFB7
P 5500 1250
F 0 "C?" H 5615 1296 50  0000 L CNN
F 1 "100uF" H 5615 1205 50  0000 L CNN
F 2 "" H 5538 1100 50  0001 C CNN
F 3 "~" H 5500 1250 50  0001 C CNN
	1    5500 1250
	1    0    0    -1  
$EndComp
Wire Wire Line
	5500 1400 5500 1450
Text Label 5500 1450 0    50   ~ 0
GND
Connection ~ 5000 1100
$Comp
L Device:C C?
U 1 1 5BABCB06
P 8800 1250
F 0 "C?" H 8915 1296 50  0000 L CNN
F 1 "100uF" H 8915 1205 50  0000 L CNN
F 2 "" H 8838 1100 50  0001 C CNN
F 3 "~" H 8800 1250 50  0001 C CNN
	1    8800 1250
	1    0    0    -1  
$EndComp
Wire Wire Line
	8800 1400 8800 1450
Text Label 8800 1450 0    50   ~ 0
GND
Connection ~ 8300 1100
$Comp
L Device:C C?
U 1 1 5BABEB47
P 10500 1250
F 0 "C?" H 10615 1296 50  0000 L CNN
F 1 "100uF" H 10615 1205 50  0000 L CNN
F 2 "" H 10538 1100 50  0001 C CNN
F 3 "~" H 10500 1250 50  0001 C CNN
	1    10500 1250
	1    0    0    -1  
$EndComp
Wire Wire Line
	10500 1400 10500 1450
Text Label 10500 1450 0    50   ~ 0
GND
Connection ~ 10000 1100
$Comp
L Device:C C?
U 1 1 5BAC0AFA
P 3850 1250
F 0 "C?" H 3965 1296 50  0000 L CNN
F 1 "100uF" H 3965 1205 50  0000 L CNN
F 2 "" H 3888 1100 50  0001 C CNN
F 3 "~" H 3850 1250 50  0001 C CNN
	1    3850 1250
	1    0    0    -1  
$EndComp
Wire Wire Line
	3850 1400 3850 1450
Text Label 3850 1450 0    50   ~ 0
GND
Connection ~ 3350 1100
Text Notes 3250 900  0    197  ~ 39
X
Text Notes 4900 900  0    197  ~ 39
Y
Text Notes 6450 900  0    197  ~ 39
Z1
Text Notes 8100 900  0    197  ~ 39
Z2
Text Notes 9900 850  0    197  ~ 39
E
$Comp
L Transistor_FET:IRLZ34N Q?
U 1 1 5BAC6F88
P 3400 5700
F 0 "Q?" H 3605 5746 50  0000 L CNN
F 1 "IRL540N" H 3605 5655 50  0000 L CNN
F 2 "Package_TO_SOT_THT:TO-220-3_Vertical" H 3650 5625 50  0001 L CIN
F 3 "http://www.infineon.com/dgdl/irlz34npbf.pdf?fileId=5546d462533600a40153567206892720" H 3400 5700 50  0001 L CNN
	1    3400 5700
	1    0    0    -1  
$EndComp
Wire Wire Line
	3500 5900 3500 6150
Wire Wire Line
	3500 6150 3500 6250
Wire Wire Line
	2900 5700 3000 5700
Wire Wire Line
	3000 5700 3200 5700
Wire Wire Line
	3000 5700 3000 5800
$Comp
L Device:R R?
U 1 1 5BACD08F
P 3000 5950
F 0 "R?" H 3070 5996 50  0000 L CNN
F 1 "R" H 3070 5905 50  0000 L CNN
F 2 "" V 2930 5950 50  0001 C CNN
F 3 "~" H 3000 5950 50  0001 C CNN
	1    3000 5950
	1    0    0    -1  
$EndComp
Wire Wire Line
	3000 6100 3000 6150
Wire Wire Line
	3000 6150 3500 6150
Connection ~ 3000 5700
$Comp
L Device:R R?
U 1 1 5BAD3B0A
P 2750 5700
F 0 "R?" V 2543 5700 50  0000 C CNN
F 1 "R" V 2634 5700 50  0000 C CNN
F 2 "" V 2680 5700 50  0001 C CNN
F 3 "~" H 2750 5700 50  0001 C CNN
	1    2750 5700
	0    1    1    0   
$EndComp
Wire Wire Line
	2600 5700 2450 5700
Text Label 3500 5000 0    50   ~ 0
12V
$Comp
L Connector:Conn_01x02_Female J?
U 1 1 5BADB63D
P 3700 5250
F 0 "J?" H 3727 5226 50  0000 L CNN
F 1 "Conn_01x02_Female" H 3727 5135 50  0000 L CNN
F 2 "" H 3700 5250 50  0001 C CNN
F 3 "~" H 3700 5250 50  0001 C CNN
	1    3700 5250
	1    0    0    -1  
$EndComp
Wire Wire Line
	3500 5000 3500 5050
Wire Wire Line
	3500 5050 3500 5250
Wire Wire Line
	3500 5350 3500 5450
Wire Wire Line
	3500 5450 3500 5500
Connection ~ 3500 5050
$Comp
L Device:R R?
U 1 1 5BAE2D20
P 3050 5200
F 0 "R?" H 3120 5246 50  0000 L CNN
F 1 "R" H 3120 5155 50  0000 L CNN
F 2 "" V 2980 5200 50  0001 C CNN
F 3 "~" H 3050 5200 50  0001 C CNN
	1    3050 5200
	1    0    0    -1  
$EndComp
$Comp
L Device:LED D?
U 1 1 5BAE2D9E
P 3300 5450
F 0 "D?" H 3292 5195 50  0000 C CNN
F 1 "LED" H 3292 5286 50  0000 C CNN
F 2 "" H 3300 5450 50  0001 C CNN
F 3 "~" H 3300 5450 50  0001 C CNN
	1    3300 5450
	-1   0    0    1   
$EndComp
Wire Wire Line
	3050 5050 3500 5050
Wire Wire Line
	3050 5350 3050 5450
Wire Wire Line
	3050 5450 3150 5450
Wire Wire Line
	3500 5450 3450 5450
Connection ~ 3500 5450
Connection ~ 3500 6150
Text Label 3500 6250 0    50   ~ 0
GND
Text Notes 3100 4850 0    118  ~ 24
heater
$Comp
L Transistor_FET:IRLZ34N Q?
U 1 1 5BB226FC
P 5540 5720
F 0 "Q?" H 5745 5766 50  0000 L CNN
F 1 "IRL540N" H 5745 5675 50  0000 L CNN
F 2 "Package_TO_SOT_THT:TO-220-3_Vertical" H 5790 5645 50  0001 L CIN
F 3 "http://www.infineon.com/dgdl/irlz34npbf.pdf?fileId=5546d462533600a40153567206892720" H 5540 5720 50  0001 L CNN
	1    5540 5720
	1    0    0    -1  
$EndComp
Wire Wire Line
	5640 5920 5640 6170
Wire Wire Line
	5640 6170 5640 6270
Wire Wire Line
	5040 5720 5140 5720
Wire Wire Line
	5140 5720 5340 5720
Wire Wire Line
	5140 5720 5140 5820
$Comp
L Device:R R?
U 1 1 5BB22705
P 5140 5970
F 0 "R?" H 5210 6016 50  0000 L CNN
F 1 "R" H 5210 5925 50  0000 L CNN
F 2 "" V 5070 5970 50  0001 C CNN
F 3 "~" H 5140 5970 50  0001 C CNN
	1    5140 5970
	1    0    0    -1  
$EndComp
Wire Wire Line
	5140 6120 5140 6170
Wire Wire Line
	5140 6170 5640 6170
Connection ~ 5140 5720
$Comp
L Device:R R?
U 1 1 5BB2270F
P 4890 5720
F 0 "R?" V 4683 5720 50  0000 C CNN
F 1 "R" V 4774 5720 50  0000 C CNN
F 2 "" V 4820 5720 50  0001 C CNN
F 3 "~" H 4890 5720 50  0001 C CNN
	1    4890 5720
	0    1    1    0   
$EndComp
Wire Wire Line
	4740 5720 4590 5720
Text Label 5640 5020 0    50   ~ 0
12V
$Comp
L Connector:Conn_01x02_Female J?
U 1 1 5BB22717
P 5840 5270
F 0 "J?" H 5867 5246 50  0000 L CNN
F 1 "Conn_01x02_Female" H 5867 5155 50  0000 L CNN
F 2 "" H 5840 5270 50  0001 C CNN
F 3 "~" H 5840 5270 50  0001 C CNN
	1    5840 5270
	1    0    0    -1  
$EndComp
Wire Wire Line
	5640 5020 5640 5070
Wire Wire Line
	5640 5070 5640 5270
Wire Wire Line
	5640 5370 5640 5470
Wire Wire Line
	5640 5470 5640 5520
Connection ~ 5640 5070
$Comp
L Device:R R?
U 1 1 5BB22721
P 5190 5220
F 0 "R?" H 5260 5266 50  0000 L CNN
F 1 "R" H 5260 5175 50  0000 L CNN
F 2 "" V 5120 5220 50  0001 C CNN
F 3 "~" H 5190 5220 50  0001 C CNN
	1    5190 5220
	1    0    0    -1  
$EndComp
$Comp
L Device:LED D?
U 1 1 5BB22727
P 5440 5470
F 0 "D?" H 5432 5215 50  0000 C CNN
F 1 "LED" H 5432 5306 50  0000 C CNN
F 2 "" H 5440 5470 50  0001 C CNN
F 3 "~" H 5440 5470 50  0001 C CNN
	1    5440 5470
	-1   0    0    1   
$EndComp
Wire Wire Line
	5190 5070 5640 5070
Wire Wire Line
	5190 5370 5190 5470
Wire Wire Line
	5190 5470 5290 5470
Wire Wire Line
	5640 5470 5590 5470
Connection ~ 5640 5470
Connection ~ 5640 6170
Text Label 5640 6270 0    50   ~ 0
GND
Text Notes 5260 4850 0    118  ~ 24
fan
$Comp
L Connector:Conn_01x03_Female J?
U 1 1 5BB24927
P 2670 3320
F 0 "J?" H 2670 3520 50  0000 C CNN
F 1 "Connector:Conn_01x03_Female" H 2670 3120 50  0000 C CNN
F 2 "" H 2670 3320 50  0001 C CNN
F 3 "" H 2670 3320 50  0001 C CNN
	1    2670 3320
	-1   0    0    1   
$EndComp
Wire Wire Line
	2870 3220 3380 3220
Wire Wire Line
	2870 3320 3070 3320
Wire Wire Line
	3070 3320 3380 3320
Text Label 3380 3220 2    50   ~ 0
5V
Text Label 3380 3320 2    50   ~ 0
GND
Wire Wire Line
	2870 3420 2910 3420
Wire Wire Line
	2910 3420 3380 3420
Text Label 3380 3420 2    60   ~ 0
xmin
Wire Wire Line
	3070 3320 3070 3360
Connection ~ 3070 3320
$Comp
L Device:C C?
U 1 1 5BB261D3
P 3070 3510
F 0 "C?" H 3095 3610 50  0000 L CNN
F 1 "Device:C" H 3095 3410 50  0000 L CNN
F 2 "" H 3108 3360 50  0001 C CNN
F 3 "" H 3070 3510 50  0001 C CNN
	1    3070 3510
	1    0    0    -1  
$EndComp
Wire Wire Line
	2910 3420 2910 3660
Wire Wire Line
	2910 3660 3070 3660
Connection ~ 2910 3420
$Comp
L Connector:Conn_01x03_Female J?
U 1 1 5BB26580
P 2670 4000
F 0 "J?" H 2670 4200 50  0000 C CNN
F 1 "Connector:Conn_01x03_Female" H 2670 3800 50  0000 C CNN
F 2 "" H 2670 4000 50  0001 C CNN
F 3 "" H 2670 4000 50  0001 C CNN
	1    2670 4000
	-1   0    0    1   
$EndComp
Wire Wire Line
	2870 3900 3380 3900
Wire Wire Line
	2870 4000 3070 4000
Wire Wire Line
	3070 4000 3380 4000
Text Label 3380 3900 2    50   ~ 0
5V
Text Label 3380 4000 2    50   ~ 0
GND
Wire Wire Line
	2870 4100 2910 4100
Wire Wire Line
	2910 4100 3380 4100
Text Label 3380 4100 2    60   ~ 0
xmax
Wire Wire Line
	3070 4000 3070 4040
Connection ~ 3070 4000
$Comp
L Device:C C?
U 1 1 5BB2658E
P 3070 4190
F 0 "C?" H 3095 4290 50  0000 L CNN
F 1 "Device:C" H 3095 4090 50  0000 L CNN
F 2 "" H 3108 4040 50  0001 C CNN
F 3 "" H 3070 4190 50  0001 C CNN
	1    3070 4190
	1    0    0    -1  
$EndComp
Wire Wire Line
	2910 4100 2910 4340
Wire Wire Line
	2910 4340 3070 4340
Connection ~ 2910 4100
$Comp
L Connector:Conn_01x03_Female J?
U 1 1 5BB26A7C
P 3990 3320
F 0 "J?" H 3990 3520 50  0000 C CNN
F 1 "Connector:Conn_01x03_Female" H 3990 3120 50  0000 C CNN
F 2 "" H 3990 3320 50  0001 C CNN
F 3 "" H 3990 3320 50  0001 C CNN
	1    3990 3320
	-1   0    0    1   
$EndComp
Wire Wire Line
	4190 3220 4700 3220
Wire Wire Line
	4190 3320 4390 3320
Wire Wire Line
	4390 3320 4700 3320
Text Label 4700 3220 2    50   ~ 0
5V
Text Label 4700 3320 2    50   ~ 0
GND
Wire Wire Line
	4190 3420 4230 3420
Wire Wire Line
	4230 3420 4700 3420
Text Label 4700 3420 2    60   ~ 0
ymin
Wire Wire Line
	4390 3320 4390 3360
Connection ~ 4390 3320
$Comp
L Device:C C?
U 1 1 5BB26A8A
P 4390 3510
F 0 "C?" H 4415 3610 50  0000 L CNN
F 1 "Device:C" H 4415 3410 50  0000 L CNN
F 2 "" H 4428 3360 50  0001 C CNN
F 3 "" H 4390 3510 50  0001 C CNN
	1    4390 3510
	1    0    0    -1  
$EndComp
Wire Wire Line
	4230 3420 4230 3660
Wire Wire Line
	4230 3660 4390 3660
Connection ~ 4230 3420
$Comp
L Connector:Conn_01x03_Female J?
U 1 1 5BB26A93
P 3990 4000
F 0 "J?" H 3990 4200 50  0000 C CNN
F 1 "Connector:Conn_01x03_Female" H 3990 3800 50  0000 C CNN
F 2 "" H 3990 4000 50  0001 C CNN
F 3 "" H 3990 4000 50  0001 C CNN
	1    3990 4000
	-1   0    0    1   
$EndComp
Wire Wire Line
	4190 3900 4700 3900
Wire Wire Line
	4190 4000 4390 4000
Wire Wire Line
	4390 4000 4700 4000
Text Label 4700 3900 2    50   ~ 0
5V
Text Label 4700 4000 2    50   ~ 0
GND
Wire Wire Line
	4190 4100 4230 4100
Wire Wire Line
	4230 4100 4700 4100
Text Label 4700 4100 2    60   ~ 0
ymax
Wire Wire Line
	4390 4000 4390 4040
Connection ~ 4390 4000
$Comp
L Device:C C?
U 1 1 5BB26AA1
P 4390 4190
F 0 "C?" H 4415 4290 50  0000 L CNN
F 1 "Device:C" H 4415 4090 50  0000 L CNN
F 2 "" H 4428 4040 50  0001 C CNN
F 3 "" H 4390 4190 50  0001 C CNN
	1    4390 4190
	1    0    0    -1  
$EndComp
Wire Wire Line
	4230 4100 4230 4340
Wire Wire Line
	4230 4340 4390 4340
Connection ~ 4230 4100
$Comp
L Connector:Conn_01x03_Female J?
U 1 1 5BB26FD0
P 5340 3320
F 0 "J?" H 5340 3520 50  0000 C CNN
F 1 "Connector:Conn_01x03_Female" H 5340 3120 50  0000 C CNN
F 2 "" H 5340 3320 50  0001 C CNN
F 3 "" H 5340 3320 50  0001 C CNN
	1    5340 3320
	-1   0    0    1   
$EndComp
Wire Wire Line
	5540 3220 6050 3220
Wire Wire Line
	5540 3320 5740 3320
Wire Wire Line
	5740 3320 6050 3320
Text Label 6050 3220 2    50   ~ 0
5V
Text Label 6050 3320 2    50   ~ 0
GND
Wire Wire Line
	5540 3420 5580 3420
Wire Wire Line
	5580 3420 6050 3420
Text Label 6050 3420 2    60   ~ 0
zmin
Wire Wire Line
	5740 3320 5740 3360
Connection ~ 5740 3320
$Comp
L Device:C C?
U 1 1 5BB26FDE
P 5740 3510
F 0 "C?" H 5765 3610 50  0000 L CNN
F 1 "Device:C" H 5765 3410 50  0000 L CNN
F 2 "" H 5778 3360 50  0001 C CNN
F 3 "" H 5740 3510 50  0001 C CNN
	1    5740 3510
	1    0    0    -1  
$EndComp
Wire Wire Line
	5580 3420 5580 3660
Wire Wire Line
	5580 3660 5740 3660
Connection ~ 5580 3420
$Comp
L Connector:Conn_01x03_Female J?
U 1 1 5BB26FE7
P 5340 4000
F 0 "J?" H 5340 4200 50  0000 C CNN
F 1 "Connector:Conn_01x03_Female" H 5340 3800 50  0000 C CNN
F 2 "" H 5340 4000 50  0001 C CNN
F 3 "" H 5340 4000 50  0001 C CNN
	1    5340 4000
	-1   0    0    1   
$EndComp
Wire Wire Line
	5540 3900 6050 3900
Wire Wire Line
	5540 4000 5740 4000
Wire Wire Line
	5740 4000 6050 4000
Text Label 6050 3900 2    50   ~ 0
5V
Text Label 6050 4000 2    50   ~ 0
GND
Wire Wire Line
	5540 4100 5580 4100
Wire Wire Line
	5580 4100 6050 4100
Text Label 6050 4100 2    60   ~ 0
zmax
Wire Wire Line
	5740 4000 5740 4040
Connection ~ 5740 4000
$Comp
L Device:C C?
U 1 1 5BB26FF5
P 5740 4190
F 0 "C?" H 5765 4290 50  0000 L CNN
F 1 "Device:C" H 5765 4090 50  0000 L CNN
F 2 "" H 5778 4040 50  0001 C CNN
F 3 "" H 5740 4190 50  0001 C CNN
	1    5740 4190
	1    0    0    -1  
$EndComp
Wire Wire Line
	5580 4100 5580 4340
Wire Wire Line
	5580 4340 5740 4340
Connection ~ 5580 4100
$Comp
L Connector:Conn_01x02_Female J?
U 1 1 5BB272FA
P 9030 3480
F 0 "J?" H 9030 3580 50  0000 C CNN
F 1 "Connector:Conn_01x02_Female" H 9030 3280 50  0000 C CNN
F 2 "" H 9030 3480 50  0001 C CNN
F 3 "" H 9030 3480 50  0001 C CNN
	1    9030 3480
	1    0    0    -1  
$EndComp
Wire Wire Line
	7980 3480 8210 3480
Wire Wire Line
	8210 3480 8370 3480
Wire Wire Line
	8370 3480 8830 3480
$Comp
L Device:R R?
U 1 1 5BB27665
P 8210 3330
F 0 "R?" V 8290 3330 50  0000 C CNN
F 1 "4.7k" V 8210 3330 50  0000 C CNN
F 2 "" V 8140 3330 50  0001 C CNN
F 3 "" H 8210 3330 50  0001 C CNN
	1    8210 3330
	1    0    0    -1  
$EndComp
Wire Wire Line
	8210 3180 8210 3140
Text Label 8210 3140 0    60   ~ 0
5V
Wire Wire Line
	8830 3580 8830 3840
Wire Wire Line
	8830 3840 8830 3980
Text Label 8830 3980 2    50   ~ 0
GND
Connection ~ 8210 3480
Wire Wire Line
	8370 3480 8370 3540
Connection ~ 8370 3480
$Comp
L Device:C C?
U 1 1 5BB28EE8
P 8370 3690
F 0 "C?" H 8395 3790 50  0000 L CNN
F 1 "100uF" H 8395 3590 50  0000 L CNN
F 2 "" H 8408 3540 50  0001 C CNN
F 3 "" H 8370 3690 50  0001 C CNN
	1    8370 3690
	1    0    0    -1  
$EndComp
Wire Wire Line
	8370 3840 8830 3840
Connection ~ 8830 3840
Text Label 7980 3480 1    60   ~ 0
heater_1
$Comp
L Connector:Conn_01x02_Female J?
U 1 1 5BB2A5B5
P 10560 3490
F 0 "J?" H 10560 3590 50  0000 C CNN
F 1 "Connector:Conn_01x02_Female" H 10560 3290 50  0000 C CNN
F 2 "" H 10560 3490 50  0001 C CNN
F 3 "" H 10560 3490 50  0001 C CNN
	1    10560 3490
	1    0    0    -1  
$EndComp
Wire Wire Line
	9510 3490 9740 3490
Wire Wire Line
	9740 3490 9900 3490
Wire Wire Line
	9900 3490 10360 3490
$Comp
L Device:R R?
U 1 1 5BB2A5BE
P 9740 3340
F 0 "R?" V 9820 3340 50  0000 C CNN
F 1 "4.7k" V 9740 3340 50  0000 C CNN
F 2 "" V 9670 3340 50  0001 C CNN
F 3 "" H 9740 3340 50  0001 C CNN
	1    9740 3340
	1    0    0    -1  
$EndComp
Wire Wire Line
	9740 3190 9740 3150
Text Label 9740 3150 0    60   ~ 0
5V
Wire Wire Line
	10360 3590 10360 3850
Wire Wire Line
	10360 3850 10360 3990
Text Label 10360 3990 2    50   ~ 0
GND
Connection ~ 9740 3490
Wire Wire Line
	9900 3490 9900 3550
Connection ~ 9900 3490
$Comp
L Device:C C?
U 1 1 5BB2A5CC
P 9900 3700
F 0 "C?" H 9925 3800 50  0000 L CNN
F 1 "100uF" H 9925 3600 50  0000 L CNN
F 2 "" H 9938 3550 50  0001 C CNN
F 3 "" H 9900 3700 50  0001 C CNN
	1    9900 3700
	1    0    0    -1  
$EndComp
Wire Wire Line
	9900 3850 10360 3850
Connection ~ 10360 3850
Text Label 9510 3490 1    60   ~ 0
heater_2
$Comp
L Connector:Conn_01x02_Female J?
U 1 1 5BB2A98B
P 9020 4270
F 0 "J?" H 9020 4370 50  0000 C CNN
F 1 "Connector:Conn_01x02_Female" H 9020 4070 50  0000 C CNN
F 2 "" H 9020 4270 50  0001 C CNN
F 3 "" H 9020 4270 50  0001 C CNN
	1    9020 4270
	1    0    0    -1  
$EndComp
Wire Wire Line
	7970 4270 8200 4270
Wire Wire Line
	8200 4270 8360 4270
Wire Wire Line
	8360 4270 8820 4270
$Comp
L Device:R R?
U 1 1 5BB2A994
P 8200 4120
F 0 "R?" V 8280 4120 50  0000 C CNN
F 1 "4.7k" V 8200 4120 50  0000 C CNN
F 2 "" V 8130 4120 50  0001 C CNN
F 3 "" H 8200 4120 50  0001 C CNN
	1    8200 4120
	1    0    0    -1  
$EndComp
Wire Wire Line
	8200 3970 8200 3930
Text Label 8200 3930 0    60   ~ 0
5V
Wire Wire Line
	8820 4370 8820 4630
Wire Wire Line
	8820 4630 8820 4770
Text Label 8820 4770 2    50   ~ 0
GND
Connection ~ 8200 4270
Wire Wire Line
	8360 4270 8360 4330
Connection ~ 8360 4270
$Comp
L Device:C C?
U 1 1 5BB2A9A2
P 8360 4480
F 0 "C?" H 8385 4580 50  0000 L CNN
F 1 "100uF" H 8385 4380 50  0000 L CNN
F 2 "" H 8398 4330 50  0001 C CNN
F 3 "" H 8360 4480 50  0001 C CNN
	1    8360 4480
	1    0    0    -1  
$EndComp
Wire Wire Line
	8360 4630 8820 4630
Connection ~ 8820 4630
Text Label 7970 4270 1    60   ~ 0
heater_3
$EndSCHEMATC
